{
    "7zip": "C:/Program Files/7-Zip/7z.exe",
    "toolchain": [
        {
            "name": "sm1_9",
            "path": "C:/sourcemod_1_9/addons/sourcemod/scripting/",
            "args": "",
            "isDefault": true
        },
        {
            "name": "sm1_10",
            "path": "C:/sourcemod_1_10/addons/sourcemod/scripting/",
            "args": ""
        }
    ]
}
